#
# Output from 'compseq'
#
# The Expected frequencies are calculated on the (false) assumption that every
# word has equal frequency.
#
# The input sequences are:
#	NZ_CP026994.1


Word size	2
Total count	1585109

#
# Word	Obs Count	Obs Frequency	Exp Frequency	Obs/Exp Frequency
#
AA	202474		0.1277351	0.0625000	2.0437610
AC	73008		0.0460587	0.0625000	0.7369386
AG	87179		0.0549987	0.0625000	0.8799799
AT	170950		0.1078475	0.0625000	1.7255596
CA	112790		0.0711560	0.0625000	1.1384958
CC	45518		0.0287160	0.0625000	0.4594561
CG	17317		0.0109248	0.0625000	0.1747968
CT	85124		0.0537023	0.0625000	0.8592368
GA	100022		0.0631010	0.0625000	1.0096164
GC	43595		0.0275028	0.0625000	0.4400454
GG	47196		0.0297746	0.0625000	0.4763937
GT	72372		0.0456574	0.0625000	0.7305188
TA	118325		0.0746479	0.0625000	1.1943658
TC	98628		0.0622216	0.0625000	0.9955454
TG	111492		0.0703371	0.0625000	1.1253939
TT	199119		0.1256185	0.0625000	2.0098958

Other	0		0.0000000	0.0000000	10000000000.0000000
