#
# Output from 'compseq'
#
# The Expected frequencies are calculated on the (false) assumption that every
# word has equal frequency.
#
# The input sequences are:
#	NZ_AFPU01000001.1


Word size	2
Total count	1607694

#
# Word	Obs Count	Obs Frequency	Exp Frequency	Obs/Exp Frequency
#
AA	204871		0.1274316	0.0625000	2.0389054
AC	73209		0.0455367	0.0625000	0.7285864
AG	85118		0.0529442	0.0625000	0.8471065
AT	177063		0.1101348	0.0625000	1.7621562
CA	111053		0.0690760	0.0625000	1.1052153
CC	45476		0.0282865	0.0625000	0.4525836
CG	21387		0.0133029	0.0625000	0.2128465
CT	85185		0.0529858	0.0625000	0.8477733
GA	98078		0.0610054	0.0625000	0.9760862
GC	46032		0.0286323	0.0625000	0.4581170
GG	45316		0.0281870	0.0625000	0.4509913
GT	72757		0.0452555	0.0625000	0.7240880
TA	126260		0.0785348	0.0625000	1.2565575
TC	98384		0.0611957	0.0625000	0.9791316
TG	110362		0.0686461	0.0625000	1.0983384
TT	207143		0.1288448	0.0625000	2.0615167

Other	0		0.0000000	0.0000000	10000000000.0000000
