#CdsCount: 2569

#Coding GC 34.10%
#1st letter GC 45.02%
#2nd letter GC 34.10%
#3rd letter GC 23.19%

#Codon AA Fraction Frequency Number
GCA    A     0.645    36.525  22810
GCC    A     0.089     5.054   3156
GCG    A     0.037     2.090   1305
GCT    A     0.228    12.924   8071
TGC    C     0.250     2.605   1627
TGT    C     0.750     7.824   4886
GAC    D     0.210    12.311   7688
GAT    D     0.790    46.291  28909
GAA    E     0.773    53.233  33244
GAG    E     0.227    15.628   9760
TTC    F     0.216     9.683   6047
TTT    F     0.784    35.162  21959
GGA    G     0.505    31.811  19866
GGC    G     0.118     7.425   4637
GGG    G     0.079     5.002   3124
GGT    G     0.298    18.743  11705
CAC    H     0.265     4.743   2962
CAT    H     0.735    13.124   8196
ATA    I     0.241    21.925  13692
ATC    I     0.172    15.596   9740
ATT    I     0.587    53.338  33310
AAA    K     0.810    68.816  42976
AAG    K     0.190    16.126  10071
CTA    L     0.162    14.005   8746
CTC    L     0.055     4.738   2959
CTG    L     0.059     5.092   3180
CTT    L     0.213    18.386  11482
TTA    L     0.312    26.975  16846
TTG    L     0.199    17.167  10721
ATG    M     1.000    24.785  15478
AAC    N     0.266    13.635   8515
AAT    N     0.734    37.611  23488
CCA    P     0.521    19.459  12152
CCC    P     0.077     2.876   1796
CCG    P     0.050     1.862   1163
CCT    P     0.352    13.169   8224
CAA    Q     0.792    25.534  15946
CAG    Q     0.208     6.689   4177
AGA    R     0.619    21.430  13383
AGG    R     0.094     3.246   2027
CGA    R     0.127     4.404   2750
CGC    R     0.029     0.999    624
CGG    R     0.013     0.463    289
CGT    R     0.118     4.083   2550
AGC    S     0.057     4.199   2622
AGT    S     0.172    12.636   7891
TCA    S     0.364    26.679  16661
TCC    S     0.074     5.446   3401
TCG    S     0.032     2.317   1447
TCT    S     0.301    22.042  13765
ACA    T     0.474    26.261  16400
ACC    T     0.104     5.753   3593
ACG    T     0.048     2.657   1659
ACT    T     0.374    20.749  12958
GTA    V     0.369    23.471  14658
GTC    V     0.104     6.613   4130
GTG    V     0.118     7.481   4672
GTT    V     0.409    25.977  16223
TGG    W     1.000     9.238   5769
TAC    Y     0.294     9.347   5837
TAT    Y     0.706    22.435  14011
TAA    *     0.494     2.030   1268
TAG    *     0.248     1.022    638
TGA    *     0.258     1.062    663
